tweet_index,sentiment_of_tweet_PN,sentiment_of_tweet_PNN,sentimento_chiaro_o_idk,sentiment_to_transition_PN,sentiment_to_transition_PNN,,,,,,,,,,,,,,,,,
1580,1,1,c,1,1,,,,,,,,,,,,,,,,,
795,-1,-1,c,-1,-1,,,,,,,,,,,,,,,,,
612,1,0,idk,1,1,,,,,,,,,,,,,,,,,
10,-1,-1,c,1,1,,,,,,,,,,,,,,,,,
2064,-1,0,idk,1,1,,,,,,,,,,,,,,,,,
1156,-1,-1,c,-1,-1,,,,,,,,,,,,,,,,,
1469,-1,-1,c,1,1,,,,,,,,,,,,,,,,,
3088,1,0,idk,1,1,,,,,,,,,,,,,,,,,
1492,-1,-1,c,-1,-1,,,,,,,,,,,,,,,,,
942,1,1,idk,1,0,,,,,,,,,,,,,,,,,
739,-1,-1,idk,-1,-1,,,,,,,,,,,,,,,,,
191,-1,-1,idk,-1,-1,,,,,,,,,,,,,,,,,
258,1,1,c,1,1,,,,,,,,,,,,,,,,,
2510,1,0,c,1,1,,,,,,,,,,,,,,,,,
1482,-1,-1,c,-1,-1,,,,,,,,,,,,,,,,,
601,1,1,c,1,1,,,,,,,,,,,,,,,,,
639,1,1,c,1,1,,,,,,,,,,,,,,,,,
3109,-1,-1,c,1,1,,,,,,,,,,,,,,,,,
355,1,0,c,1,1,,,,,,,,,,,,,,,,,
401,1,0,c,1,1,,,,,,,,,,,,,,,,,
1605,1,0,idk,1,1,,,,,,,,,,,,,,,,,
428,-1,-1,c,1,1,,,,,,,,,,,,,,,,,
1595,1,1,c,1,1,,,,,,,,,,,,,,,,,
1632,1,0,idk,1,1,,,,,,,,,,,,,,,,,
75,1,1,c,1,1,,,,,,,,,,,,,,,,,
1215,1,0,idk,1,1,,,,,,,,,,,,,,,,,
2719,-1,-1,c,-1,-1,,,,,,,,,,,,,,,,,
2572,1,1,c,1,1,,,,,,,,,,,,,,,,,
231,1,1,c,1,1,,,,,,,,,,,,,,,,,
860,-1,0,idk,1,1,,,,,,,,,,,,,,,,,
2110,1,1,c,1,1,,,,,,,,,,,,,,,,,
593,-1,0,idk,1,1,,,,,,,,,,,,,,,,,
1704,-1,-1,c,-1,-1,,,,,,,,,,,,,,,,,
2539,1,1,idk,1,1,,,,,,,,,,,,,,,,,
2899,1,1,c,1,1,,,,,,,,,,,,,,,,,
103,-1,-1,c,1,1,,,,,,,,,,,,,,,,,
2272,1,0,c,1,1,,,,,,,,,,,,,,,,,
14,1,1,c,1,1,,,,,,,,,,,,,,,,,
253,-1,-1,c,1,1,,,,,,,,,,,,,,,,,
679,1,0,c,1,1,,,,,,,,,,,,,,,,,
2127,1,1,c,1,1,,,,,,,,,,,,,,,,,
347,1,1,c,1,1,,,,,,,,,,,,,,,,,
2798,-1,-1,c,1,1,,,,,,,,,,,,,,,,,
2770,1,1,c,1,1,,,,,,,,,,,,,,,,,
887,1,1,idk,1,1,,,,,,,,,,,,,,,,,
2505,1,1,c,1,1,,,,,,,,,,,,,,,,,
2786,1,1,c,1,1,,,,,,,,,,,,,,,,,
311,-1,-1,c,1,1,,,,,,,,,,,,,,,,,
1800,1,1,c,1,1,,,,,,,,,,,,,,,,,
1761,-1,-1,c,-1,-1,,,,,,,,,,,,,,,,,
1523,-1,-1,c,1,1,,,,,,,,,,,,,,,,,
2017,1,1,c,1,1,,,,,,,,,,,,,,,,,
1280,1,0,c,1,0,,,,,,,,,,,,,,,,,
1461,1,0,idk,1,0,,,,,,,,,,,,,,,,,
1290,1,0,idk,1,0,,,,,,,,,,,,,,,,,
941,1,1,c,1,1,,,,,,,,,,,,,,,,,
2258,-1,0,idk,1,0,,,,,,,,,,,,,,,,,
2604,1,1,c,1,1,,,,,,,,,,,,,,,,,
1509,-1,-1,c,1,1,,,,,,,,,,,,,,,,,
1742,-1,-1,idk,-1,-1,,,,,,,,,,,,,,,,,
1848,-1,-1,c,-1,-1,,,,,,,,,,,,,,,,,
38,1,1,c,1,1,,,,,,,,,,,,,,,,,
2732,-1,-1,c,-1,-1,,,,,,,,,,,,,,,,,
262,1,1,c,1,1,,,,,,,,,,,,,,,,,
1340,-1,0,idk,1,1,,,,,,,,,,,,,,,,,
2056,1,1,c,1,1,,,,,,,,,,,,,,,,,
15,1,1,c,1,1,,,,,,,,,,,,,,,,,
2045,1,1,c,1,1,,,,,,,,,,,,,,,,,
426,1,1,c,1,1,,,,,,,,,,,,,,,,,
